p, role:user,   /api/resources,          ^GET$
p, role:admin,  /api/resources,          ^POST$
p, role:admin,  /api/resources/\d+$,     ^PUT|DELETE$
p, role:admin,  /api/users,              ^POST$
p, role:admin,  /api/users/\d+$,         ^GET|PUT|DELETE$

p, role:sys,    .*,                      .*


g, role:admin,  role:user
g, user:a,      role:admin
g, user:j,      role:user
g, user:x,      role:sys


p, user:phuong, .*, .*
